{
  "$schema": "http://json-schema.org/draft-06/schema#",
  "type": "object",
  "properties": {
    "type": {
      "type": "string"
    },
    "organization": {
      "type": "string"
    },
    "key": {
      "type": "string"
    }
  },
  "required": [
    "type",
    "organization",
    "key"
  ],
  "additionalProperties": false
}
